<svg width="32" height="32" viewBox="0 0 32 32" fill="none" xmlns="http://www.w3.org/2000/svg">
<g clip-path="url(#clip0_1145_6937)">
<path d="M18.2377 21.4146C18.3838 21.3498 18.5418 21.3164 18.7016 21.3164C18.8614 21.3164 19.0195 21.3498 19.1656 21.4146L20.3718 21.9777C20.9936 21.5223 21.5418 20.9741 21.9972 20.3523L21.4372 19.1621C21.3698 19.0183 21.3329 18.862 21.3289 18.7032C21.3249 18.5444 21.3539 18.3865 21.414 18.2394C21.4741 18.0924 21.5641 17.9594 21.6783 17.8489C21.7924 17.7384 21.9282 17.6528 22.0772 17.5975L23.3282 17.1432C23.4482 16.3821 23.4482 15.607 23.3282 14.8459L22.0772 14.398C21.9286 14.3426 21.7932 14.2571 21.6793 14.1468C21.5655 14.0366 21.4757 13.904 21.4156 13.7573C21.3555 13.6106 21.3264 13.4531 21.3301 13.2947C21.3338 13.1362 21.3703 12.9803 21.4372 12.8366L22.0004 11.6304C21.545 11.0086 20.9968 10.4604 20.375 10.005L19.1624 10.5585C19.0186 10.626 18.8623 10.6629 18.7035 10.6669C18.5447 10.6709 18.3868 10.6419 18.2397 10.5818C18.0927 10.5216 17.9597 10.4317 17.8492 10.3175C17.7387 10.2034 17.6531 10.0675 17.5978 9.91862L17.1435 8.6676C16.3824 8.54761 15.6073 8.54761 14.8462 8.6676L14.3983 9.91862C14.3429 10.0671 14.2574 10.2026 14.1471 10.3164C14.0369 10.4303 13.9042 10.5201 13.7576 10.5802C13.6109 10.6403 13.4534 10.6694 13.295 10.6657C13.1365 10.662 12.9806 10.6255 12.8369 10.5585L11.6307 9.99541C11.0205 10.4383 10.4811 10.9712 10.0309 11.576M10.5844 13.7581C10.5236 13.9049 10.4331 14.0375 10.3186 14.1476C10.2041 14.2577 10.068 14.343 9.91891 14.398L8.66789 14.8523C8.54951 15.6135 8.54951 16.3884 8.66789 17.1496L9.91891 17.5975C10.0674 17.6529 10.2029 17.7384 10.3167 17.8487C10.4306 17.9589 10.5204 18.0915 10.5805 18.2382C10.6406 18.3849 10.6697 18.5424 10.666 18.7008C10.6622 18.8593 10.6258 19.0152 10.5588 19.1589L9.9957 20.3651C10.4511 20.9869 10.9993 21.5351 11.6211 21.9905L12.8337 21.437C12.9775 21.3695 13.1338 21.3326 13.2926 21.3286C13.4514 21.3246 13.6093 21.3536 13.7563 21.4137C13.9034 21.4738 14.0364 21.5638 14.1468 21.678C14.2573 21.7921 14.3429 21.928 14.3983 22.0769L14.8526 23.3279C15.6137 23.4479 16.3888 23.4479 17.1499 23.3279M13.5664 15.9977C13.5664 15.5168 13.709 15.0467 13.9762 14.6468C14.2434 14.2469 14.6232 13.9352 15.0675 13.7512C15.5118 13.5672 16.0007 13.519 16.4724 13.6128C16.9441 13.7066 17.3774 13.9382 17.7175 14.2783C18.0575 14.6184 18.2891 15.0517 18.383 15.5234C18.4768 15.9951 18.4286 16.484 18.2446 16.9283C18.0605 17.3726 17.7489 17.7524 17.349 18.0196C16.9491 18.2868 16.479 18.4294 15.998 18.4294C15.3531 18.4294 14.7346 18.1732 14.2786 17.7172C13.8226 17.2612 13.5664 16.6427 13.5664 15.9977Z" stroke="#171321" stroke-width="1.27982" stroke-linecap="round" stroke-linejoin="round"/>
<path d="M29.0162 15.3578C29.0162 15.5722 29.0162 15.7897 29.0162 15.9977C29.017 18.4475 28.327 20.8478 27.0253 22.9232C25.7236 24.9985 23.863 26.6647 21.6572 27.7304" stroke="#171321" stroke-width="1.27982" stroke-linecap="round" stroke-linejoin="round"/>
<path d="M16.001 2.966C18.535 2.96617 21.0142 3.70461 23.1353 5.09105C25.2565 6.4775 26.9277 8.45189 27.9449 10.7729" stroke="#171321" stroke-width="1.27982" stroke-linecap="round" stroke-linejoin="round"/>
<path d="M2.99657 16.8584C2.97737 16.5736 2.96777 16.2857 2.96777 15.9977C2.96851 13.5491 3.65926 11.1503 4.96084 9.07623C6.26241 7.0022 8.12211 5.33695 10.3267 4.27139" stroke="#171321" stroke-width="1.27982" stroke-linecap="round" stroke-linejoin="round"/>
<path d="M15.9999 29.0295C13.4075 29.0297 10.874 28.2568 8.72305 26.8098C6.57214 25.3627 4.90156 23.3072 3.9248 20.9059" stroke="#171321" stroke-width="1.27982" stroke-linecap="round" stroke-linejoin="round"/>
<path d="M17.1659 0.639954L14.8389 2.97014L17.1659 5.30033" stroke="#171321" stroke-width="1.27982" stroke-linecap="round" stroke-linejoin="round"/>
<path d="M14.8389 31.3638L17.1659 29.0336L14.8389 26.7034" stroke="#171321" stroke-width="1.27982" stroke-linecap="round" stroke-linejoin="round"/>
<path d="M31.3655 17.1633L29.0353 14.8364L26.7051 17.1633" stroke="#171321" stroke-width="1.27982" stroke-linecap="round" stroke-linejoin="round"/>
<path d="M0.641602 14.8364L2.97179 17.1633L5.30198 14.8364" stroke="#171321" stroke-width="1.27982" stroke-linecap="round" stroke-linejoin="round"/>
</g>
<defs>
<clipPath id="clip0_1145_6937">
<rect width="31.9954" height="31.9954" fill="white"/>
</clipPath>
</defs>
</svg>
