<svg width="32" height="32" viewBox="0 0 32 32" fill="none" xmlns="http://www.w3.org/2000/svg">
<g clip-path="url(#clip0_7998_15914)">
<path d="M15.8347 28.3833C18.7557 28.3833 21.1236 26.0154 21.1236 23.0945C21.1236 20.1736 18.7557 17.8057 15.8347 17.8057C12.9138 17.8057 10.5459 20.1736 10.5459 23.0945C10.5459 26.0154 12.9138 28.3833 15.8347 28.3833Z" stroke="#171321" stroke-width="1.27982" stroke-linecap="round" stroke-linejoin="round"/>
<path d="M13.8156 9.13115L15.0143 10.3267L17.8605 7.48047" stroke="#171321" stroke-width="1.27982" stroke-linecap="round" stroke-linejoin="round"/>
<path d="M15.8347 14.19C18.7557 14.19 21.1236 11.8221 21.1236 8.90114C21.1236 5.9802 18.7557 3.6123 15.8347 3.6123C12.9138 3.6123 10.5459 5.9802 10.5459 8.90114C10.5459 11.8221 12.9138 14.19 15.8347 14.19Z" stroke="#171321" stroke-width="1.27982" stroke-linecap="round" stroke-linejoin="round"/>
<path d="M14.4143 24.5201L17.2637 21.6738" stroke="#171321" stroke-width="1.27982" stroke-linecap="round" stroke-linejoin="round"/>
<path d="M14.4143 21.6738L17.2637 24.5201" stroke="#171321" stroke-width="1.27982" stroke-linecap="round" stroke-linejoin="round"/>
<path d="M6.94969 31.3557C6.6948 31.3561 6.44232 31.3063 6.20671 31.209C5.9711 31.1118 5.75698 30.969 5.5766 30.7889C5.39621 30.6089 5.25311 30.395 5.15547 30.1595C5.05783 29.9241 5.00757 29.6717 5.00757 29.4168V2.57906C5.00757 2.32417 5.05783 2.07178 5.15547 1.83633C5.25311 1.60088 5.39621 1.38699 5.5766 1.2069C5.75698 1.02682 5.9711 0.884063 6.20671 0.786812C6.44232 0.68956 6.6948 0.639719 6.94969 0.640139H25.0463C25.3012 0.639719 25.5536 0.68956 25.7892 0.786812C26.0249 0.884063 26.239 1.02682 26.4194 1.2069C26.5997 1.38699 26.7429 1.60088 26.8405 1.83633C26.9381 2.07178 26.9884 2.32417 26.9884 2.57906" stroke="#171321" stroke-width="1.27982" stroke-linecap="round" stroke-linejoin="round"/>
<path d="M26.9883 4.85059V29.4166C26.9883 29.6715 26.9381 29.9239 26.8405 30.1594C26.7428 30.3948 26.5997 30.6087 26.4193 30.7888C26.2389 30.9689 26.0248 31.1116 25.7892 31.2089C25.5536 31.3061 25.3011 31.356 25.0462 31.3556H9.22131" stroke="#171321" stroke-width="1.27982" stroke-linecap="round" stroke-linejoin="round"/>
</g>
<defs>
<clipPath id="clip0_7998_15914">
<rect width="31.9954" height="31.9954" fill="white"/>
</clipPath>
</defs>
</svg>
