<svg width="32" height="32" viewBox="0 0 32 32" fill="none" xmlns="http://www.w3.org/2000/svg">
<g clip-path="url(#clip0_1386_12905)">
<path d="M15.9999 25.0368C14.2126 25.0368 12.4655 24.5068 10.9794 23.5138C9.49327 22.5208 8.335 21.1095 7.65102 19.4582C6.96705 17.807 6.78809 15.99 7.13678 14.237C7.48547 12.484 8.34614 10.8738 9.60996 9.61002C10.8738 8.3462 12.484 7.48553 14.2369 7.13684C15.9899 6.78815 17.8069 6.96711 19.4582 7.65109C21.1094 8.33506 22.5208 9.49333 23.5138 10.9794C24.5067 12.4655 25.0367 14.2127 25.0367 16C25.0342 18.3959 24.0813 20.693 22.3871 22.3872C20.6929 24.0814 18.3959 25.0343 15.9999 25.0368ZM15.9999 8.2432C14.4658 8.2432 12.9661 8.69813 11.6905 9.55046C10.4149 10.4028 9.42068 11.6142 8.83359 13.0316C8.2465 14.449 8.09289 16.0086 8.39218 17.5133C8.69148 19.0179 9.43024 20.4001 10.5151 21.4849C11.5999 22.5697 12.982 23.3085 14.4867 23.6078C15.9913 23.9071 17.551 23.7534 18.9683 23.1663C20.3857 22.5793 21.5972 21.585 22.4495 20.3094C23.3018 19.0338 23.7567 17.5342 23.7567 16C23.7534 13.9438 22.935 11.9728 21.4811 10.5189C20.0271 9.0649 18.0561 8.24658 15.9999 8.2432Z" fill="#171321"/>
<path d="M16.0001 29.6736C12.8454 29.6723 9.78815 28.5804 7.34635 26.583C4.90454 24.5855 3.22832 21.8054 2.60167 18.7136C1.97502 15.6217 2.43647 12.4083 3.90786 9.6178C5.37924 6.82726 7.77007 4.63117 10.6753 3.4016C10.7532 3.36494 10.8378 3.34438 10.9238 3.34117C11.0099 3.33796 11.0957 3.35215 11.1762 3.3829C11.2566 3.41365 11.3301 3.46033 11.3921 3.52013C11.454 3.57994 11.5033 3.65164 11.5369 3.73094C11.5706 3.81024 11.5878 3.89551 11.5877 3.98164C11.5876 4.06777 11.5701 4.153 11.5362 4.2322C11.5024 4.31141 11.4529 4.38296 11.3907 4.44259C11.3286 4.50221 11.255 4.54868 11.1745 4.5792C8.5405 5.69322 6.37271 7.68367 5.03847 10.2132C3.70423 12.7428 3.28563 15.6559 3.85359 18.4588C4.42155 21.2617 5.94115 23.782 8.15486 25.5926C10.3686 27.4033 13.1402 28.3928 16.0001 28.3936C16.1698 28.3936 16.3326 28.461 16.4526 28.5811C16.5726 28.7011 16.6401 28.8639 16.6401 29.0336C16.6401 29.2033 16.5726 29.3661 16.4526 29.4861C16.3326 29.6062 16.1698 29.6736 16.0001 29.6736ZM21.1681 28.608C21.0217 28.6068 20.8802 28.5554 20.7671 28.4625C20.654 28.3696 20.5762 28.2407 20.5466 28.0973C20.5171 27.954 20.5375 27.8048 20.6046 27.6747C20.6717 27.5446 20.7813 27.4414 20.9153 27.3824C23.5327 26.251 25.68 24.2519 26.9954 21.7219C28.3108 19.192 28.7139 16.2859 28.1366 13.4935C27.5593 10.7011 26.037 8.19301 23.8263 6.39202C21.6156 4.59103 18.8515 3.60722 16.0001 3.6064C15.8303 3.6064 15.6676 3.53897 15.5475 3.41895C15.4275 3.29892 15.3601 3.13614 15.3601 2.9664C15.3601 2.79666 15.4275 2.63387 15.5475 2.51385C15.6676 2.39383 15.8303 2.3264 16.0001 2.3264C19.1512 2.31846 22.2085 3.39889 24.6549 5.38504C27.1013 7.37119 28.7869 10.1412 29.4266 13.2268C30.0663 16.3123 29.6208 19.5241 28.1656 22.3191C26.7104 25.1142 24.3347 27.321 21.4401 28.5664C21.3535 28.5998 21.2607 28.614 21.1681 28.608Z" fill="#171321"/>
<path d="M17.1648 5.93278C16.9965 5.93719 16.8332 5.87511 16.7104 5.75998L14.4 3.41758C14.2808 3.29767 14.2139 3.13546 14.2139 2.96638C14.2139 2.7973 14.2808 2.63509 14.4 2.51518L16.7104 0.188782C16.8319 0.0782504 16.9913 0.0186943 17.1556 0.0224448C17.3198 0.0261953 17.4763 0.0929651 17.5927 0.208929C17.7091 0.324894 17.7764 0.481171 17.7807 0.645403C17.7851 0.809635 17.7261 0.969244 17.616 1.09118L15.7408 2.96638L17.616 4.84158C17.7352 4.96149 17.8021 5.1237 17.8021 5.29278C17.8021 5.46186 17.7352 5.62407 17.616 5.74398C17.4965 5.86417 17.3342 5.93207 17.1648 5.93278Z" fill="#171321"/>
<path d="M14.8352 32C14.7104 31.9964 14.5893 31.9563 14.487 31.8848C14.3846 31.8133 14.3054 31.7133 14.2592 31.5973C14.2129 31.4813 14.2016 31.3543 14.2266 31.232C14.2516 31.1096 14.3119 30.9973 14.4 30.9088L16.2752 29.0336L14.4 27.1584C14.2899 27.0364 14.2309 26.8768 14.2352 26.7126C14.2396 26.5484 14.3069 26.3921 14.4233 26.2761C14.5396 26.1602 14.6962 26.0934 14.8604 26.0896C15.0246 26.0859 15.184 26.1455 15.3056 26.256L17.632 28.5824C17.7512 28.7023 17.8181 28.8645 17.8181 29.0336C17.8181 29.2027 17.7512 29.3649 17.632 29.4848L15.3056 31.8112C15.2442 31.873 15.1708 31.9217 15.0899 31.9541C15.009 31.9866 14.9223 32.0022 14.8352 32Z" fill="#171321"/>
<path d="M12.8 18.4224C12.6348 18.4209 12.4766 18.3555 12.3584 18.24L10.56 16.432C10.5005 16.3725 10.4533 16.302 10.4211 16.2243C10.3889 16.1466 10.3723 16.0633 10.3723 15.9792C10.3723 15.8951 10.3889 15.8118 10.4211 15.7341C10.4533 15.6564 10.5005 15.5858 10.56 15.5264L12.3616 13.7248C12.4817 13.6047 12.6446 13.5372 12.8144 13.5372C12.9842 13.5372 13.1471 13.6047 13.2672 13.7248C13.3873 13.8449 13.4548 14.0078 13.4548 14.1776C13.4548 14.3474 13.3873 14.5103 13.2672 14.6304L11.9168 15.9808L13.2672 17.328C13.3583 17.4183 13.4202 17.5338 13.4448 17.6597C13.4695 17.7856 13.4557 17.9159 13.4054 18.0339C13.355 18.1518 13.2704 18.2519 13.1624 18.3212C13.0545 18.3905 12.9282 18.4257 12.8 18.4224Z" fill="#171321"/>
<path d="M19.872 18.4224C19.7452 18.4225 19.6211 18.3849 19.5157 18.3144C19.4103 18.2439 19.3282 18.1436 19.2798 18.0263C19.2315 17.9091 19.2191 17.7801 19.2442 17.6557C19.2693 17.5314 19.3308 17.4173 19.4208 17.328L20.768 15.9808L19.4208 14.6304C19.3565 14.5723 19.3046 14.5017 19.2683 14.423C19.2321 14.3442 19.2122 14.2589 19.2099 14.1723C19.2077 14.0856 19.223 13.9994 19.255 13.9188C19.2871 13.8383 19.3352 13.765 19.3964 13.7036C19.4576 13.6422 19.5306 13.5939 19.611 13.5616C19.6915 13.5292 19.7777 13.5136 19.8643 13.5155C19.951 13.5175 20.0364 13.5371 20.1153 13.5731C20.1941 13.609 20.2649 13.6607 20.3232 13.7248L22.1248 15.5264C22.1843 15.5858 22.2315 15.6564 22.2637 15.7341C22.2959 15.8118 22.3125 15.8951 22.3125 15.9792C22.3125 16.0633 22.2959 16.1466 22.2637 16.2243C22.2315 16.302 22.1843 16.3726 22.1248 16.432L20.3232 18.24C20.2027 18.3578 20.0406 18.4234 19.872 18.4224Z" fill="#171321"/>
<path d="M15.3985 19.4144C15.3289 19.4149 15.2597 19.4041 15.1937 19.3824C15.1129 19.3554 15.0383 19.3126 14.9743 19.2564C14.9102 19.2003 14.8581 19.1319 14.8208 19.0553C14.7836 18.9787 14.762 18.8954 14.7573 18.8104C14.7526 18.7253 14.765 18.6402 14.7937 18.56L16.6785 13.0112C16.7353 12.8508 16.8536 12.7196 17.0072 12.6463C17.1608 12.5731 17.3373 12.5639 17.4977 12.6208C17.6581 12.6777 17.7893 12.7959 17.8625 12.9495C17.9357 13.1032 17.9449 13.2796 17.8881 13.44L16.0001 18.9792C15.9575 19.1053 15.8767 19.215 15.7688 19.293C15.661 19.371 15.5315 19.4134 15.3985 19.4144Z" fill="#171321"/>
</g>
<defs>
<clipPath id="clip0_1386_12905">
<rect width="32" height="32" fill="white"/>
</clipPath>
</defs>
</svg>
