<svg width="32" height="33" viewBox="0 0 32 33" fill="none" xmlns="http://www.w3.org/2000/svg">
<g clip-path="url(#clip0_748_5899)">
<path d="M16.0007 32.7294C15.1714 32.7293 14.3433 32.6651 13.5239 32.5374C13.4109 32.5197 13.3047 32.4721 13.2164 32.3995C13.128 32.3269 13.0608 32.232 13.0215 32.1246L12.0743 29.5294C11.9885 29.3072 11.8581 29.1049 11.6913 28.9349C11.5244 28.7649 11.3245 28.6308 11.104 28.5409C10.8834 28.451 10.6468 28.4072 10.4086 28.4121C10.1705 28.4169 9.93583 28.4705 9.71912 28.5694L7.22632 29.7342C7.12349 29.7809 7.01011 29.7996 6.8977 29.7884C6.78529 29.7772 6.67786 29.7364 6.58632 29.6702C5.23762 28.6864 4.0501 27.4989 3.06632 26.1502C3.00012 26.0586 2.95932 25.9512 2.94808 25.8388C2.93684 25.7264 2.95555 25.613 3.00232 25.5102L4.16072 23.0174C4.26306 22.8009 4.31932 22.5656 4.32592 22.3263C4.33252 22.087 4.28932 21.8489 4.19906 21.6272C4.1088 21.4054 3.97345 21.2049 3.80159 21.0382C3.62973 20.8715 3.42512 20.7424 3.20072 20.659L0.608718 19.7182C0.501302 19.6789 0.406358 19.6117 0.333761 19.5233C0.261164 19.4349 0.213566 19.3288 0.195918 19.2158C-0.0600976 17.5745 -0.0600976 15.9034 0.195918 14.2622C0.213566 14.1492 0.261164 14.043 0.333761 13.9546C0.406358 13.8663 0.501302 13.799 0.608718 13.7598L3.20072 12.819C3.42292 12.7331 3.62522 12.6028 3.7952 12.4359C3.96518 12.2691 4.09924 12.0692 4.18915 11.8486C4.27906 11.628 4.32292 11.3914 4.31803 11.1533C4.31314 10.9151 4.25961 10.6805 4.16072 10.4638L3.84072 9.73417C3.80083 9.65668 3.7772 9.57186 3.77125 9.48491C3.76531 9.39797 3.77719 9.31072 3.80616 9.22852C3.83513 9.14633 3.88058 9.07092 3.93973 9.00691C3.99888 8.9429 4.07047 8.89165 4.15013 8.8563C4.22979 8.82094 4.31583 8.80223 4.40298 8.80131C4.49012 8.80038 4.57654 8.81726 4.65693 8.85092C4.73732 8.88458 4.80999 8.9343 4.87048 8.99704C4.93097 9.05978 4.97801 9.13421 5.00872 9.21577L5.32872 9.93257C5.50104 10.3109 5.59352 10.7206 5.60038 11.1363C5.60723 11.5519 5.52832 11.9645 5.36856 12.3483C5.2088 12.7321 4.97164 13.0788 4.67187 13.3668C4.37211 13.6548 4.01618 13.8779 3.62632 14.0222L1.38632 14.8318C1.22709 16.0998 1.23462 17.3833 1.40872 18.6494L3.64872 19.459C4.04084 19.6021 4.39892 19.8252 4.70023 20.1141C5.00153 20.403 5.23948 20.7514 5.39896 21.1372C5.55844 21.5229 5.63598 21.9376 5.62664 22.355C5.6173 22.7723 5.5213 23.1831 5.34472 23.5614L4.33352 25.6894C5.11252 26.7082 6.02281 27.6196 7.04072 28.3998L9.18472 27.4014C9.56326 27.2268 9.9738 27.1323 10.3906 27.124C10.8074 27.1156 11.2214 27.1935 11.6066 27.3528C11.9918 27.512 12.34 27.7492 12.6292 28.0494C12.9184 28.3497 13.1424 28.7064 13.2871 29.0974L14.0967 31.3374C15.3627 31.5038 16.6451 31.5038 17.9111 31.3374L18.7207 29.0974C18.8655 28.7069 19.0894 28.3505 19.3784 28.0505C19.6674 27.7506 20.0152 27.5136 20.4 27.3543C20.7849 27.1951 21.1985 27.1171 21.6149 27.1252C22.0313 27.1333 22.4416 27.2273 22.8199 27.4014L24.9607 28.3998C26.074 27.5453 27.059 26.5355 27.8855 25.4014C27.9857 25.2643 28.1362 25.1726 28.3039 25.1465C28.4716 25.1204 28.6429 25.162 28.7799 25.2622C28.917 25.3623 29.0087 25.5128 29.0348 25.6805C29.0609 25.8483 29.0193 26.0195 28.9191 26.1566C27.9411 27.5048 26.7589 28.6924 25.4151 29.6766C25.3236 29.7428 25.2162 29.7836 25.1038 29.7948C24.9913 29.806 24.878 29.7873 24.7751 29.7406L22.2695 28.5694C22.0528 28.4705 21.8182 28.4169 21.58 28.4121C21.3419 28.4072 21.1053 28.451 20.8847 28.5409C20.6641 28.6308 20.4642 28.7649 20.2974 28.9349C20.1305 29.1049 20.0002 29.3072 19.9143 29.5294L18.9735 32.1182C18.9343 32.2256 18.867 32.3205 18.7787 32.3931C18.6903 32.4657 18.5841 32.5133 18.4711 32.531C17.654 32.6604 16.8281 32.7268 16.0007 32.7294Z" fill="#171321"/>
<path d="M27.6186 24.7057C27.4995 24.7056 27.3828 24.6724 27.2817 24.6096C27.1805 24.5469 27.0988 24.4571 27.0458 24.3505L26.6586 23.5729C26.4823 23.1939 26.3864 22.7824 26.377 22.3645C26.3676 21.9466 26.4448 21.5312 26.6038 21.1446C26.7629 20.758 27.0002 20.4085 27.301 20.1182C27.6018 19.8279 27.9594 19.603 28.3514 19.4577L30.5914 18.6481C30.7546 17.3819 30.7546 16.0999 30.5914 14.8337L28.3514 14.0241C27.9588 13.8821 27.6001 13.6598 27.2982 13.3714C26.9963 13.083 26.7578 12.7349 26.5979 12.3492C26.4381 11.9635 26.3603 11.5487 26.3697 11.1313C26.379 10.7139 26.4752 10.303 26.6522 9.9249L27.6538 7.7713C26.8755 6.7618 25.9698 5.85723 24.9594 5.0801L22.8154 6.0817C22.4373 6.25867 22.0264 6.3549 21.609 6.36424C21.1916 6.37358 20.7768 6.29584 20.3911 6.13596C20.0055 5.97609 19.6573 5.7376 19.3689 5.43569C19.0806 5.13379 18.8582 4.7751 18.7162 4.3825L17.9066 2.1425C16.6356 1.98243 15.3493 1.98673 14.0794 2.1553L13.2698 4.3953C13.1274 4.78801 12.9048 5.14675 12.6161 5.44867C12.3274 5.7506 11.979 5.98908 11.5931 6.14893C11.2071 6.30879 10.7921 6.3865 10.3745 6.37713C9.95687 6.36776 9.54578 6.27151 9.16741 6.0945L7.03941 5.0801C5.92272 5.93881 4.93459 6.95281 4.10501 8.0913C4.00359 8.22837 3.85188 8.31953 3.68324 8.34473C3.51461 8.36994 3.34287 8.32712 3.20581 8.2257C3.06874 8.12428 2.97758 7.97257 2.95238 7.80394C2.92717 7.6353 2.96999 7.46357 3.07141 7.3265C4.01487 6.03485 5.14509 4.89061 6.42501 3.9313C6.5613 3.8298 6.72262 3.76726 6.89171 3.75035C7.0608 3.73344 7.23131 3.7628 7.38501 3.8353L9.71461 4.9201C9.93103 5.02244 10.1664 5.0787 10.4057 5.0853C10.645 5.0919 10.8831 5.0487 11.1048 4.95844C11.3265 4.86818 11.5271 4.73283 11.6938 4.56097C11.8604 4.38912 11.9896 4.1845 12.073 3.9601L13.0138 1.3713C13.0506 1.2609 13.1169 1.16264 13.2054 1.08708C13.2939 1.01152 13.4014 0.961538 13.5162 0.9425C15.1575 0.686484 16.8285 0.686484 18.4698 0.9425C18.5846 0.961538 18.6921 1.01152 18.7806 1.08708C18.8691 1.16264 18.9354 1.2609 18.9722 1.3713L19.913 3.9313C19.9944 4.157 20.1221 4.36322 20.2877 4.53679C20.4534 4.71035 20.6535 4.84745 20.8751 4.9393C21.0968 5.03116 21.3352 5.07576 21.575 5.07025C21.8149 5.06474 22.051 5.00924 22.2682 4.9073L24.761 3.7457C24.8638 3.69893 24.9772 3.68022 25.0896 3.69146C25.202 3.7027 25.3095 3.7435 25.401 3.8097C26.7455 4.79301 27.9278 5.98072 28.905 7.3297C28.9712 7.42124 29.012 7.52867 29.0232 7.64108C29.0345 7.75349 29.0158 7.86687 28.969 7.9697L27.8074 10.4625C27.7056 10.6788 27.6498 10.9138 27.6434 11.1528C27.6371 11.3917 27.6804 11.6294 27.7707 11.8507C27.8609 12.0721 27.996 12.2723 28.1676 12.4388C28.3392 12.6052 28.5434 12.7342 28.7674 12.8177L31.3562 13.7585C31.4642 13.7973 31.5598 13.8643 31.633 13.9527C31.7062 14.0411 31.7543 14.1476 31.7722 14.2609C32.0282 15.9022 32.0282 17.5732 31.7722 19.2145C31.7543 19.3279 31.7062 19.4343 31.633 19.5227C31.5598 19.6111 31.4642 19.6782 31.3562 19.7169L28.7994 20.6609C28.5766 20.746 28.3737 20.8759 28.2032 21.0426C28.0327 21.2093 27.8982 21.4093 27.8082 21.6301C27.7182 21.851 27.6745 22.088 27.6799 22.3264C27.6853 22.5648 27.7395 22.7995 27.8394 23.0161L28.1914 23.7713C28.2293 23.8467 28.2518 23.9288 28.2578 24.013C28.2639 24.0971 28.2532 24.1816 28.2264 24.2616C28.1996 24.3416 28.1573 24.4155 28.1019 24.4791C28.0465 24.5427 27.979 24.5947 27.9034 24.6321C27.8155 24.6784 27.718 24.7036 27.6186 24.7057Z" fill="#171321"/>
<path d="M16.0001 25.9659C14.1748 25.9678 12.39 25.4284 10.8713 24.4159C9.35254 23.4034 8.16816 21.9633 7.4679 20.2777C6.76764 18.5921 6.58295 16.7367 6.93718 14.9461C7.29142 13.1555 8.16866 11.5102 9.45799 10.2182C10.7473 8.92614 12.3908 8.04547 14.1807 7.68751C15.9705 7.32955 17.8263 7.51038 19.5134 8.20714C21.2004 8.90389 22.643 10.0853 23.6587 11.6019C24.6743 13.1185 25.2174 14.9022 25.2193 16.7275C25.2185 19.1741 24.2475 21.5205 22.5193 23.2523C20.7911 24.9841 18.4467 25.96 16.0001 25.9659ZM16.0001 8.7915C14.427 8.7896 12.8888 9.2545 11.5801 10.1273C10.2714 11.0002 9.25105 12.2417 8.64833 13.6947C8.0456 15.1478 7.88757 16.747 8.19423 18.2899C8.50089 19.8328 9.25846 21.25 10.371 22.3621C11.4836 23.4742 12.9011 24.2312 14.4441 24.5372C15.9871 24.8433 17.5863 24.6846 19.0391 24.0813C20.4918 23.478 21.733 22.4572 22.6053 21.1481C23.4776 19.839 23.9419 18.3006 23.9393 16.7275C23.9343 14.6237 23.0961 12.6077 21.6082 11.1204C20.1203 9.63309 18.1039 8.79573 16.0001 8.7915Z" fill="#171321"/>
<path d="M12.4804 19.1622C12.3958 19.1618 12.312 19.1447 12.234 19.1117C12.156 19.0788 12.0853 19.0306 12.026 18.9702L10.2404 17.1718C10.1809 17.1123 10.1337 17.0417 10.1015 16.9641C10.0693 16.8864 10.0527 16.8031 10.0527 16.719C10.0527 16.6349 10.0693 16.5516 10.1015 16.4739C10.1337 16.3962 10.1809 16.3256 10.2404 16.2662L12.042 14.4678C12.1636 14.3572 12.323 14.2977 12.4872 14.3014C12.6515 14.3052 12.808 14.372 12.9244 14.4879C13.0407 14.6039 13.1081 14.7602 13.1124 14.9244C13.1167 15.0886 13.0577 15.2482 12.9476 15.3702L11.5844 16.7302L12.9316 18.0774C13.0185 18.1672 13.0771 18.2804 13.1003 18.4031C13.1236 18.5258 13.1104 18.6527 13.0625 18.768C13.0145 18.8833 12.9338 18.9821 12.8304 19.0521C12.727 19.1222 12.6053 19.1604 12.4804 19.1622Z" fill="#171321"/>
<path d="M19.5363 19.1604C19.4092 19.1611 19.2847 19.124 19.1788 19.0537C19.0729 18.9834 18.9902 18.8832 18.9415 18.7658C18.8928 18.6484 18.8801 18.5191 18.9051 18.3945C18.9301 18.2699 18.9916 18.1555 19.0819 18.066L20.4323 16.7284L19.0819 15.378C18.9718 15.256 18.9128 15.0964 18.9171 14.9322C18.9215 14.768 18.9888 14.6117 19.1052 14.4957C19.2215 14.3798 19.3781 14.313 19.5423 14.3092C19.7066 14.3055 19.866 14.3651 19.9875 14.4756L21.7891 16.274C21.8486 16.3334 21.8958 16.404 21.928 16.4817C21.9602 16.5594 21.9768 16.6427 21.9768 16.7268C21.9768 16.8109 21.9602 16.8942 21.928 16.9719C21.8958 17.0496 21.8486 17.1201 21.7891 17.1796L19.9875 18.9684C19.9286 19.0285 19.8584 19.0764 19.781 19.1093C19.7036 19.1423 19.6204 19.1596 19.5363 19.1604Z" fill="#171321"/>
<path d="M15.0659 20.1575C14.9962 20.1567 14.927 20.1448 14.8611 20.1223C14.7009 20.0676 14.5689 19.9518 14.4939 19.8C14.419 19.6483 14.4072 19.4731 14.4611 19.3127L16.3427 13.7639C16.3696 13.6842 16.4119 13.6107 16.4672 13.5474C16.5225 13.4841 16.5898 13.4324 16.6651 13.3951C16.7404 13.3578 16.8224 13.3357 16.9062 13.33C16.9901 13.3244 17.0742 13.3354 17.1539 13.3623C17.2335 13.3892 17.3071 13.4315 17.3703 13.4868C17.4336 13.5421 17.4854 13.6094 17.5227 13.6847C17.56 13.76 17.5821 13.842 17.5877 13.9258C17.5933 14.0097 17.5824 14.0938 17.5555 14.1735L15.6803 19.7223C15.637 19.8504 15.5542 19.9616 15.4438 20.0398C15.3335 20.118 15.2011 20.1592 15.0659 20.1575Z" fill="#171321"/>
</g>
<defs>
<clipPath id="clip0_748_5899">
<rect width="32" height="32" fill="white" transform="translate(0 0.730957)"/>
</clipPath>
</defs>
</svg>
